hello@jf4good.com;Thursday 18 Aug  17:26:05
linda.salvisberg@hotmail.com;Thursday 18 Aug  17:26:09
samuel.vicente@gamingfederation.ch;Thursday 18 Aug  17:26:14
sylvain.meier@bluewin.ch;Thursday 18 Aug  17:26:18
fanelia@faneliart.fr;Thursday 18 Aug  17:26:22
info@media-zone.tv;Thursday 18 Aug  17:26:26
