Ignoring line 22 : `['The Matcha Green', 'Akiko', 'Ames', '', 'Jaune', '', 'Francais', '0041 79 286 87 98 (Roxane)', 'FALSE']`
Ignoring line 24 : `['Bernina', '', '', '', 'Vert', '', '', '', 'FALSE']`
Ignoring line 28 : `['PtitShou', 'Sophie', 'MEAS', 'VD 308 888', 'Bleu', '', '', '', 'FALSE']`
Ignoring line 50 : `['Softice Dream', 'Relancé', '', '', '', '', '', '', 'FALSE']`
Ignoring line 51 : `['Oh Gelato', 'Relancé', '', '', '', '', '', '', 'FALSE']`
Ignoring line 52 : `['Centre Sésame', 'Relancé', '', '', '', '', '', '', 'FALSE']`
Ignoring line 53 : `['Sweety Swiss', '', '', 'GE 210 310', 'Vert', 'eventceline@gmail.com', 'Francais', '0033 667 05 11 70 (Lea)', 'FALSE']`
Ignoring line 54 : `['Sweety Swiss', '', '', 'GE 210 311', 'Bleu', 'eventceline@gmail.com', 'Francais', '0033 667 05 11 70 (Lea)', 'FALSE']`
Ignoring line 57 : `['Ukiyo', 'Camionette en attente plaque', '', '', 'Jaune', '', '', '', 'FALSE']`
Ignoring line 58 : `['Ukiyo', 'Aurélien ', 'LACHETEAU', 'DD 833 NF', 'Bleu', '', '', '', 'FALSE']`
Ignoring line 59 : `['Ukiyo', 'Clément', 'ALOY', 'CQ 321 GF', 'Bleu', '', '', '', 'FALSE']`
Ignoring line 60 : `['Ukiyo', 'Flore', 'PRIMAULT', 'VD 474 312', '', '', '', '', 'FALSE']`
Ignoring line 61 : `['Sérénité', 'Relancé', '', '', '', '', '', '', 'FALSE']`
Ignoring line 64 : `['Association Kissui', 'Olivier', 'Pitteloud', 'VS172980', 'Bleu', 'contact@kissui.moe', '', '', 'FALSE']`
Ignoring line 65 : `['Association Kissui', 'Camille', 'Rosset', 'VS506250', 'Bleu', '', '', '', 'FALSE']`
Ignoring line 68 : `['Melectronics Stand', 'Avdul', 'Avduli', 'VD561678', 'Bleu', 'andrea.luck@gmvd.migros.ch', '', '', 'FALSE']`
Ignoring line 69 : `['Melectronics Stand', 'Vincent', 'Girard', 'VD587638', 'Bleu', '', '', '', 'FALSE']`
Ignoring line 70 : `['Melectronics Stand', 'Anthony', 'Barret', 'VD603598', 'Bleu', '', '', '', 'FALSE']`
Ignoring line 71 : `['Melectronics Stand', 'Andrea', 'Luck', 'VD 380 378', 'Jaune', '', '', '', 'FALSE']`
Ignoring line 72 : `['Melectronics Stand', 'Mickaël', 'Magnin', 'VD 489115', 'Bleu', '', '', '', 'FALSE']`
Ignoring line 73 : `['Melectronics Stand', 'Adão', 'Sousa', 'VD 557805', 'Bleu', '', '', '', 'FALSE']`
Ignoring line 74 : `['Melectronics Stand', 'Sacha', 'Sandoz', 'VD 33159', 'Bleu', '', '', '', 'FALSE']`
Ignoring line 75 : `['Melectronics Stand', 'Abdurrahman', 'Softic', 'VD 28347', 'Bleu', '', '', '', 'FALSE']`
Ignoring line 76 : `['Melectronics Stand', 'Hadryan', 'Jury', 'VD 22970', 'Bleu', '', '', '', 'FALSE']`
Ignoring line 77 : `['Melectronics Stand', 'Ludovic', 'Jean-Mairet', 'VD 614032', 'Bleu', '', '', '', 'FALSE']`
Ignoring line 78 : `['Melectronics Stand', 'Maxime', 'Ho-Fong-Chou', 'VD120226', 'Bleu', '', '', '', 'FALSE']`
Ignoring line 79 : `['Melectronics Stand', 'Cami', 'Onnette', '??? Non défini', 'Violet', '', '', '', 'FALSE']`
Ignoring line 80 : `['Melectronics Stand', 'Cami', 'Onnette', '??? Non défini', 'Bleu', '', '', '', 'FALSE']`
Ignoring line 81 : `['Melectronics Genki', 'Pierre-André', 'Grasseler ', 'EM159RB (FR)', 'Jaune', 'pa.grasseler@genkicorp.ch', '', '', 'FALSE']`
Ignoring line 82 : `['Melectronics Genki', 'Franck', 'Boisseau', 'VD555257', 'Bleu', '', 'Francais', '', 'FALSE']`
Ignoring line 85 : `['', '', '', '', '', '', '', '', 'FALSE']`
Ignoring line 86 : `['Aoi clothing', 'Kayshonne', 'INSIXIENGMAY', 'FF192QS', '', 'kayshonne@gmail.com', '', '', 'FALSE']`
Ignoring line 87 : `['Aoi clothing', 'Marin', 'Pascal', '??? (pas encore connu)', '', '', '', '', 'FALSE']`
Ignoring line 88 : `['Aoi clothing', 'Sai', 'FUKUYAMA', '??? (pas encore connu)', '', '', '', '', 'FALSE']`
Ignoring line 89 : `["L'écaille d'argent", 'Anaïs', 'BEUKERS', 'FR276 619', '', 'silver.scale.creations@gmail.com', '', '', 'FALSE']`
Ignoring line 90 : `['Les bouilles geeks', 'Jérémie', 'Vaucouleur', 'ET-996-CF', '', 'LBG-LesBouillesGeek@outlook.com', '', '', 'FALSE']`
/home/rno/FunProgramming/macaroni/macaroni.py:37: DeprecationWarning: getsize is deprecated and will be removed in Pillow 10 (2023-07-01). Use getbbox or getlength instead.
  width, u = font.getsize(text)
Mail sent to artlevant@laposte.net
Mail sent to n.donevsky@gmail.com
Mail sent to production@tale-of-fantasy.ch
Mail sent to rainbowrangerzofficiel@gmail.com
Mail sent to vmaoo@vmaoo.ch
Mail sent to weiss-schwarz@tcg-vs.ch
Mail sent to dianeillustration@gmail.com
Mail sent to mei13ch@gmail.com
Mail sent to deborah.maradan@gmail.com
Mail sent to tvngnis@gmail.com
Mail sent to valentine.stegmann@gmail.com
Mail sent to contact@pikanoa.com
Mail sent to 1stella.rou@gmail.com
Mail sent to contact@cours-de-japonais.com
Mail sent to dedorgoth@hotmail.com
Mail sent to garance.herzog@ef.com
Mail sent to yannicktissot83@gmail.com
Mail sent to joelle@fluffytori.pink
Mail sent to pokedisneystitch@gmail.com
Mail sent to vercorskokedama@gmail.com
Mail sent to contact@midnightblossom.ch
Mail sent to amber.rose@yellowscreations.com
Mail sent to bubbletea@chuchu.ch
Mail sent to maniacrepes024@gmail.com
Mail sent to takoyakigo@yahoo.com
Mail sent to info@wakara.ch
Mail sent to r.belle@mamike.ch
Mail sent to pierre-alain.faucherre@emchberger.ch
Mail sent to norikoseiler@yahoo.co.jp
Mail sent to monica.delgado92@gmail.com
Mail sent to baptiste@thiebault.eu
Mail sent to kalystencreations@gmail.com
Mail sent to info@alberto-russo.com
Mail sent to valerie@surchat.ch
Mail sent to s.galletm@gmail.com
Mail sent to hello.ptitshou@gmail.com
Mail sent to marionknoerr@hotmail.com
Mail sent to melaniegarcia11@gmail.com
Mail sent to isa.prenat@gmail.com
Mail sent to oana.lacroix@gmail.com
Mail sent to emilynavid@gmail.com
Mail sent to machinasu.contact@gmail.com
Mail sent to studiosetsama@gmail.com
Mail sent to garlegasart@gmail.com
All done! Check the results/ folder
