Already sent => Ignoring  line 1 : `['Art Levant', 'Julien ', 'OMEYER', 'DC736GN ', 'Bleu', 'artlevant@laposte.net', 'Francais', '0041 79 286 87 98 (Roxane)', 'TRUE']`
Already sent => Ignoring  line 2 : `['Aka taïko', 'Nathalie ', 'DONEVSKY', 'VD 269751 ', 'Rouge', 'n.donevsky@gmail.com', 'Francais', '0041 79 286 87 98 (Roxane)', 'TRUE']`
Already sent => Ignoring  line 3 : `['Aka taïko', 'Viviane ', 'DI SANTOLO', 'VD 218104', 'Rouge', '', 'Francais', '0041 79 286 87 98 (Roxane)', 'TRUE']`
Already sent => Ignoring  line 4 : `['Tale of Fantasy', 'Delphine', 'RUBIN', 'VD 600 383', 'Bleu', 'production@tale-of-fantasy.ch', 'Francais', '0041 79 286 87 98 (Roxane)', 'TRUE']`
Already sent => Ignoring  line 5 : `['Tale of Fantasy', 'Thibault', 'GAVIN', 'VD 200 805', 'Bleu', '', 'Francais', '0041 79 286 87 98 (Roxane)', 'TRUE']`
Already sent => Ignoring  line 6 : `['Tale of Fantasy', 'Jean-Luc', 'BERKOVITS', 'FR 384 571', 'Bleu', '', 'Francais', '0041 79 286 87 98 (Roxane)', 'TRUE']`
Already sent => Ignoring  line 7 : `['Tale of Fantasy', 'Brigitte', 'TEBOUL', 'VD 287 687', 'Bleu', '', 'Francais', '0041 79 286 87 98 (Roxane)', 'TRUE']`
Already sent => Ignoring  line 8 : `['Tale of Fantasy', 'Delphine', 'CHARMEY', 'VD 298 954', 'Bleu', '', 'Francais', '0041 79 286 87 98 (Roxane)', 'TRUE']`
Already sent => Ignoring  line 9 : `['Tale of Fantasy', 'Clément', 'LAMBLA', 'VD 233 405', 'Bleu', '', 'Francais', '0041 79 286 87 98 (Roxane)', 'TRUE']`
Already sent => Ignoring  line 10 : `['Tale of Fantasy', 'Wolfgang', 'DA COSTA', 'VD 497 068', 'Bleu', '', 'Francais', '0041 79 286 87 98 (Roxane)', 'TRUE']`
Already sent => Ignoring  line 11 : `['Tale of Fantasy', 'Alexandre', 'PICOTTE', 'VD 546 657', 'Bleu', '', 'Francais', '0041 79 286 87 98 (Roxane)', 'TRUE']`
Already sent => Ignoring  line 12 : `['Tale of Fantasy', 'Christine', 'AUROI', 'VD 88471', 'Bleu', '', 'Francais', '0041 79 286 87 98 (Roxane)', 'TRUE']`
Already sent => Ignoring  line 13 : `['Tale of Fantasy', 'Moïra', 'VOLET', 'VD 242 117', 'Bleu', '', 'Francais', '0041 79 286 87 98 (Roxane)', 'TRUE']`
Already sent => Ignoring  line 14 : `['Rainbow Rangerz', 'Benjamine ', 'LEFEBVRE', 'EC 672 VP', 'Vert', 'rainbowrangerzofficiel@gmail.com', 'Francais', '0041 79 286 87 98 (Roxane)', 'TRUE']`
Already sent => Ignoring  line 15 : `['Rainbow Rangerz', 'Martin', 'DELAURE', 'CZ 143 AX', 'Vert', '', 'Francais', '0041 79 286 87 98 (Roxane)', 'TRUE']`
Already sent => Ignoring  line 16 : `['Rainbow Rangerz', 'Léon ', 'ROUILLON ', 'DM 363 XN', 'Vert', '', 'Francais', '0041 79 286 87 98 (Roxane)', 'TRUE']`
Already sent => Ignoring  line 17 : `['Kintsugi', 'Véronique', 'MOOSER', 'FR 284446', 'Jaune', 'vmaoo@vmaoo.ch', 'Francais', '0041 79 286 87 98 (Roxane)', 'TRUE']`
Already sent => Ignoring  line 18 : `['TCG League Valaisanne', 'Luca', 'BIRCHLER', 'VS39337', 'Bleu', 'weiss-schwarz@tcg-vs.ch', 'Francais', '0041 79 286 87 98 (Roxane)', 'TRUE']`
Already sent => Ignoring  line 19 : `['Hanafuda', 'Katrin', 'KOBEL', 'VD 243 925', 'Bleu', 'dianeillustration@gmail.com', 'Francais', '0041 79 286 87 98 (Roxane)', 'TRUE']`
Already sent => Ignoring  line 20 : `['Hanafuda', 'Tatiana ', 'CALPE', 'VD 234 036', 'Bleu', '', 'Francais', '0041 79 286 87 98 (Roxane)', 'TRUE']`
Already sent => Ignoring  line 21 : `['Hanafuda', 'Alain', 'FARWAGI', 'VD 164 420', 'Bleu', '', 'Francais', '0041 79 286 87 98 (Roxane)', 'TRUE']`
Bad format => 	Ignoring  line 22 : `['The Matcha Green', 'Akiko', 'Ames', '', 'Jaune', '', 'Francais', '0041 79 286 87 98 (Roxane)', 'FALSE']`
Already sent => Ignoring  line 23 : `['Activité cours de japonnais', 'Christian', 'LOEFFEL', 'NE48282', 'Bleu', 'mei13ch@gmail.com', 'Francais', '0041 79 286 87 98 (Roxane)', 'TRUE']`
Bad format => 	Ignoring  line 24 : `['Bernina', '', '', '', 'Vert', '', '', '', 'FALSE']`
Already sent => Ignoring  line 25 : `['Threeleaves', 'Déborah', 'MARADAN', 'FR 350 677', 'Bleu', 'deborah.maradan@gmail.com', 'Francais', '0041 78 665 03 19 (Zoé)', 'TRUE']`
Already sent => Ignoring  line 26 : `['TVCHANY', 'Thao-Vi', 'NGUYEN', 'GE 167 48', 'Bleu', 'tvngnis@gmail.com', 'Francais', '0041 78 665 03 19 (Zoé)', 'TRUE']`
Already sent => Ignoring  line 27 : `['Crazyworldofval', 'Yann ', 'BRANDILY', 'VD 508 457', 'Bleu', 'valentine.stegmann@gmail.com', 'Francais', '0041 78 665 03 19 (Zoé)', 'TRUE']`
Bad format => 	Ignoring  line 28 : `['PtitShou', 'Sophie', 'MEAS', 'VD 308 888', 'Bleu', '', '', '', 'FALSE']`
Already sent => Ignoring  line 29 : `['Pikanoa', 'Noemie', 'LALANDE', 'EY 261 AP', 'Rouge', 'contact@pikanoa.com', 'Francais', '0033 667 05 11 70 (Lea)', 'TRUE']`
Already sent => Ignoring  line 30 : `['Maid Café', 'Jef ', 'MONTANDON', 'VD 144 112', 'Vert', '1stella.rou@gmail.com', 'Francais', '0033 667 05 11 70 (Lea)', 'TRUE']`
Already sent => Ignoring  line 31 : `['Maid Café', 'Nathalie ', 'STEININGER', 'VD 477427', 'Vert', '', 'Francais', '0033 667 05 11 70 (Lea)', 'TRUE']`
Already sent => Ignoring  line 32 : `['Maid Café', 'Carolina Nunes Galvao', 'DE CARVALHO', 'VD 568 108', 'Bleu', '', 'Francais', '0033 667 05 11 70 (Lea)', 'TRUE']`
Already sent => Ignoring  line 33 : `['Maid Café', 'Marily ', 'MORGEN', 'VD 145474', 'Bleu', '', 'Francais', '0033 667 05 11 70 (Lea)', 'TRUE']`
Already sent => Ignoring  line 34 : `['Maid Café', 'Siméon ', 'RUCHTI', 'NE 161 846', 'Bleu', '', 'Francais', '0033 667 05 11 70 (Lea)', 'TRUE']`
Already sent => Ignoring  line 35 : `['Maid Café', 'Yutthana', 'BELLON', 'VD 480565', 'Bleu', '', 'Francais', '0033 667 05 11 70 (Lea)', 'TRUE']`
Already sent => Ignoring  line 36 : `['Cours de japonais', 'Marie-Sophie ', 'THOMAS', 'FD 117 EP ', 'Vert', 'contact@cours-de-japonais.com', 'Francais', '0033 667 05 11 70 (Lea)', 'TRUE']`
Already sent => Ignoring  line 37 : `['Cordebar', 'Nina', 'KÖNIG', 'VD 115 236', 'Bleu', 'dedorgoth@hotmail.com', 'Francais', '0033 667 05 11 70 (Lea)', 'TRUE']`
Already sent => Ignoring  line 38 : `['EF', 'Garance', 'HERZOG', 'VD 178 940', 'Bleu', 'garance.herzog@ef.com', 'Francais', '0033 667 05 11 70 (Lea)', 'TRUE']`
Already sent => Ignoring  line 39 : `['Excellence Tea', 'Yannick', 'TISSOT', 'VD 188 921', 'Vert', 'yannicktissot83@gmail.com', 'Francais', '0033 667 05 11 70 (Lea)', 'TRUE']`
Already sent => Ignoring  line 40 : `['Excellence Tea', 'Davide ', 'MELONI', 'VD 172 478', 'Vert', '', 'Francais', '0033 667 05 11 70 (Lea)', 'TRUE']`
Already sent => Ignoring  line 41 : `['Fluffy Tori', 'Joëlle', 'KRUMMENACHER', 'VD 476 046', 'Bleu', 'joelle@fluffytori.pink', 'Francais', '0033 667 05 11 70 (Lea)', 'TRUE']`
Okay => 	Accepting line 42 : `['Fluffy Tori 2', 'Joëlle', 'KRUMMENACHER', 'VD 476 047', 'Vert', 'joelle@fluffytori.pink', 'Francais', '0033 667 05 11 70 (Lea)', 'FALSE']`
Already sent => Ignoring  line 43 : `['Itsumademo', 'Melody ', 'CORREIA', 'VS 390 322', 'Vert', 'pokedisneystitch@gmail.com', 'Francais', '0033 667 05 11 70 (Lea)', 'TRUE']`
Already sent => Ignoring  line 44 : `['Itsumademo', 'Marisa ', 'CORREIA', 'VD 523 804', 'Bleu', '', 'Francais', '0033 667 05 11 70 (Lea)', 'TRUE']`
Already sent => Ignoring  line 45 : `['Itsumademo', 'Nathalie ', 'CORREIA', 'VS 539 384', 'Vert', '', 'Francais', '0033 667 05 11 70 (Lea)', 'TRUE']`
Okay => 	Accepting line 46 : `['Itsumademo 2', 'Nathalie ', 'CORREIA', 'VS 527 661', 'Bleu', 'pokedisneystitch@gmail.com', 'Francais', '0033 667 05 11 70 (Lea)', 'FALSE']`
Already sent => Ignoring  line 47 : `['Kokedama', 'Adrian', 'CUNER', 'DW 195 MG', 'Violet', 'vercorskokedama@gmail.com', 'Francais', '0033 667 05 11 70 (Lea)', 'TRUE']`
Already sent => Ignoring  line 48 : `['Midnight Blossom', 'Gianluca', 'MASTRO', 'GE 894 084', 'Vert', 'contact@midnightblossom.ch', 'Francais', '0033 667 05 11 70 (Lea)', 'TRUE']`
Already sent => Ignoring  line 49 : `['Yellows Creations', 'Amber ', "D'HONDT", 'BE 0651 809 910', 'Vert', 'amber.rose@yellowscreations.com', 'Anglais', '0033 667 05 11 70 (Lea)', 'TRUE']`
Already sent => Ignoring  line 50 : `['Kanpai Bubble Tea', 'Tomasz', 'LO', 'VD 297 689 ', 'Vert', 'bubbletea@chuchu.ch', 'Francais', '0033 667 05 11 70 (Lea)', 'TRUE']`
Okay => 	Accepting line 51 : `['Kanpai Bubble Tea 2', 'Michel', 'POREDO', 'VD 233 87', 'Vert', 'bubbletea@chuchu.ch', 'Francais', '0033 667 05 11 70 (Lea)', 'FALSE']`
Already sent => Ignoring  line 52 : `['Crêpes Mania', 'Kevin', 'BÜTIKOFER', 'VS 449 976', 'Vert', 'maniacrepes024@gmail.com', 'Francais', '0033 667 05 11 70 (Lea)', 'TRUE']`
Okay => 	Accepting line 53 : `['Label 7', 'Weronika', 'WINS', 'SO 321 14', 'Bleu', 'weronika.wins@label7.ch', 'Anglais', '0033 667 05 11 70 (Lea)', 'FALSE']`
Bad format => 	Ignoring  line 54 : `['Oh Gelato', 'Relancé', '', '', '', '', '', '', 'FALSE']`
Bad format => 	Ignoring  line 55 : `['Centre Sésame', 'Relancé', '', '', '', '', '', '', 'FALSE']`
Okay => 	Accepting line 56 : `['Sweety Swiss', 'Céline ', 'BONNAVAL', 'GE 210 310', 'Vert', 'eventceline@gmail.com', 'Francais', '0033 667 05 11 70 (Lea)', 'FALSE']`
Already sent => Ignoring  line 57 : `['Takoyaki', 'Ruslanas ', 'ASKEROVAS', 'BE 426 001', 'Bleu', 'takoyakigo@yahoo.com', 'Anglais', '0033 667 05 11 70 (Lea)', 'TRUE']`
Already sent => Ignoring  line 58 : `['Wakara', 'Manuela', 'NAKAMURA', 'AG 110 281', 'Bleu', 'info@wakara.ch', 'Anglais', '0033 667 05 11 70 (Lea)', 'TRUE']`
Okay => 	Accepting line 59 : `['Ukiyo', 'Stéphane', 'LIECHTI', 'VD 105 465', 'Bleu', 'stephane.liechti@ukiyo.swiss', 'Francais', '0033 667 05 11 70 (Lea)', 'FALSE']`
Okay => 	Accepting line 60 : `['Ukiyo', 'Aurélien ', 'LACHETEAU', 'DD 833 NF', 'Bleu', 'stephane.liechti@ukiyo.swiss', 'Francais', '0033 667 05 11 70 (Lea)', 'FALSE']`
Okay => 	Accepting line 61 : `['Ukiyo', 'Clément', 'ALOY', 'CQ 321 GF', 'Bleu', 'stephane.liechti@ukiyo.swiss', 'Francais', '0033 667 05 11 70 (Lea)', 'FALSE']`
Okay => 	Accepting line 62 : `['Ukiyo', 'Flore', 'PRIMAULT', 'VD 474 312', 'Bleu', 'stephane.liechti@ukiyo.swiss', 'Francais', '0033 667 05 11 70 (Lea)', 'FALSE']`
Okay => 	Accepting line 63 : `['Sérénité', 'Frédérique', 'BRAULT', 'VD 292 824', 'Vert', 'serenitechloe@gmail.com', 'Francais', '0033 667 05 11 70 (Lea)', 'FALSE']`
Okay => 	Accepting line 64 : `['Sérénité', 'Frédérique', 'BRAULT', 'GE 342 277', 'Vert', 'serenitechloe@gmail.com', 'Francais', '0033 7 82 17 02 94 (Prunelle)', 'FALSE']`
Already sent => Ignoring  line 65 : `['Mamike', 'Robert', 'BELLE', 'BE108869', 'Vert', 'r.belle@mamike.ch', 'Anglais', '0033 7 82 17 02 94 (Prunelle)', 'TRUE']`
Already sent => Ignoring  line 66 : `['Swiss Cosplay Family 0', 'Pierre-Alain ', 'FAUCHERRE', 'VD229186', 'Rouge', 'pierre-alain.faucherre@emchberger.ch', 'Francais', '0033 7 82 17 02 94 (Prunelle)', 'TRUE']`
Okay => 	Accepting line 67 : `['Association Kissui', 'Olivier', 'PITTELOUD', 'VS172980', 'Vert', 'contact@kissui.moe', 'Francais', '0041 79 895 93 03 (Martine)', 'FALSE']`
Okay => 	Accepting line 68 : `['Association Kissui', 'Camille', 'ROSSET', 'VS506250', 'Bleu', '', '', '0041 79 895 93 03 (Martine)', 'FALSE']`
Already sent => Ignoring  line 69 : `['Atelier Noriko', 'Markus', 'SEILER', 'SG 2793', 'Bleu', 'norikoseiler@yahoo.co.jp', 'Francais', '0041 78 665 03 19 (Zoé)', 'TRUE']`
Already sent => Ignoring  line 70 : `['Monica Delgado', 'Monica', 'DELGADO', 'VS104216', 'Bleu', 'monica.delgado92@gmail.com', 'Francais', '0041 78 665 03 19 (Zoé)', 'TRUE']`
Okay => 	Accepting line 71 : `['Melectronics Stand', 'Avdul', 'AVDULI', 'VD 561678', 'Bleu', 'andrea.luck@gmvd.migros.ch', 'Francais', '0041 78 636 13 64 (Jérémy)', 'FALSE']`
Okay => 	Accepting line 72 : `['Melectronics Stand', 'Anthony', 'BARRET', 'VD 603598', 'Bleu', '', 'Francais', '0041 78 636 13 64 (Jérémy)', 'FALSE']`
Okay => 	Accepting line 73 : `['Melectronics Stand', 'Andrea', 'LUCK', 'VD 380 378', 'Jaune', '', 'Francais', '0041 78 636 13 64 (Jérémy)', 'FALSE']`
Okay => 	Accepting line 74 : `['Melectronics Stand', 'Mickaël', 'MAGNIN', 'VD 489115', 'Bleu', '', 'Francais', '0041 78 636 13 64 (Jérémy)', 'FALSE']`
Okay => 	Accepting line 75 : `['Melectronics Stand', 'Adão', 'SOUSA', 'VD 557805', 'Bleu', '', 'Francais', '0041 78 636 13 64 (Jérémy)', 'FALSE']`
Okay => 	Accepting line 76 : `['Melectronics Stand', 'Sacha', 'SANDOZ', 'VD 33159', 'Bleu', '', 'Francais', '0041 78 636 13 64 (Jérémy)', 'FALSE']`
Okay => 	Accepting line 77 : `['Melectronics Stand', 'Abdurrahman', 'SOFTIC', 'VD 28347', 'Bleu', '', 'Francais', '0041 78 636 13 64 (Jérémy)', 'FALSE']`
Okay => 	Accepting line 78 : `['Melectronics Stand', 'Hadryan', 'JURY', 'VD 22970', 'Bleu', '', 'Francais', '0041 78 636 13 64 (Jérémy)', 'FALSE']`
Okay => 	Accepting line 79 : `['Melectronics Stand', 'Ludovic', 'JEAN-MAIRET', 'VD 614032', 'Bleu', '', 'Francais', '0041 78 636 13 64 (Jérémy)', 'FALSE']`
Okay => 	Accepting line 80 : `['Melectronics Stand', 'Camionnette', '-', 'VD 624424', 'Violet', '', 'Francais', '0041 78 636 13 64 (Jérémy)', 'FALSE']`
Okay => 	Accepting line 81 : `['Melectronics Stand', 'Camionnette', '-', 'VD 624424', 'Bleu', '', 'Francais', '0041 78 636 13 64 (Jérémy)', 'FALSE']`
Okay => 	Accepting line 82 : `['Melectronics Genki', 'Pierre-André', 'GASSELER', 'EM159RB (FR)', 'Jaune', 'pa.grasseler@genkicorp.ch', 'Francais', '0041 78 636 13 64 (Jérémy)', 'FALSE']`
Okay => 	Accepting line 83 : `['Melectronics Genki', 'Franck', 'BOISSEAU', 'VD555257', 'Bleu', '', 'Francais', '0041 78 636 13 64 (Jérémy)', 'FALSE']`
Okay => 	Accepting line 84 : `['Melectronics Genki', 'Cédric', 'BARAVAGLIO', 'VD325201', 'Bleu', '', 'Francais', '0041 78 636 13 64 (Jérémy)', 'FALSE']`
Already sent => Ignoring  line 85 : `['Touhou-Bohu', 'Graziano', 'CONTI ROSSINI', 'VD 180064', 'Bleu', 'baptiste@thiebault.eu', 'Francais', '0041 78 665 03 19 (Zoé)', 'TRUE']`
Already sent => Ignoring  line 86 : `['Kalysten créations ', 'Laura', 'COUTIER', 'DQ 584 WY', 'Bleu', 'kalystencreations@gmail.com', 'Francais', '0033 7 82 17 02 94 (Prunelle)', 'TRUE']`
Bad format => 	Ignoring  line 87 : `['', '', '', '', '', '', '', '', 'FALSE']`
Okay => 	Accepting line 88 : `['Aoi clothing', 'Kayshonne', 'INSIXIENGMAY', 'FF192QS', 'Vert', 'kayshonne@gmail.com', 'Francais', '0041 79 895 93 03 (Martine)', 'FALSE']`
Okay => 	Accepting line 89 : `['Aoi clothing', 'Pascal', 'MARIN', 'ED669YZ', 'Vert', '', 'Francais', '0041 79 895 93 03 (Martine)', 'FALSE']`
Okay => 	Accepting line 90 : `['Aoi clothing', 'Sai', 'FUKUYAMA', 'EM200HW', 'Vert', '', 'Francais', '0041 79 895 93 03 (Martine)', 'FALSE']`
Okay => 	Accepting line 91 : `["L'écaille d'argent", 'Anaïs', 'BEUKERS', 'FR276 619', 'Vert', 'silver.scale.creations@gmail.com', 'Francais', '0041 79 895 93 03 (Martine)', 'FALSE']`
Okay => 	Accepting line 92 : `["L'écaille d'argent", 'Isabelle', 'PAUL', 'BE 245 FB', 'Bleu', '', 'Francais', '0041 79 895 93 03 (Martine)', 'FALSE']`
Okay => 	Accepting line 93 : `['Les bouilles geeks', 'Jérémie', 'VAUCOULEUR', 'ET-996-CF', 'Violet', 'LBG-LesBouillesGeek@outlook.com', 'Francais', '0041 79 895 93 03 (Martine)', 'FALSE']`
Already sent => Ignoring  line 94 : `['Swiss Cosplay Family 1', 'Marjorie', 'MILEJ', 'VD587830', 'Vert', 'marjoriemilej@outlook.com', 'Francais', '0033 7 82 17 02 94 (Prunelle)', 'TRUE']`
Already sent => Ignoring  line 95 : `['Swiss Cosplay Family 2', 'Gaëtan', 'MATTHEY', 'NE143295', 'Vert', 'gaetan.matthey@bluewin.ch', 'Francais', '0033 7 82 17 02 94 (Prunelle)', 'TRUE']`
Already sent => Ignoring  line 96 : `['Swiss Cosplay Family 3', 'Camila-Laure', 'CHACON', 'GE83712', 'Vert', 'camille.laure.chacon@gmail.com', 'Francais', '0033 7 82 17 02 94 (Prunelle)', 'TRUE']`
Already sent => Ignoring  line 97 : `['Swiss Cosplay Family 4', 'Aline', 'VUONG', 'VD341029', 'Vert', 'aline.vuong@bluewin.ch', 'Francais', '0033 7 82 17 02 94 (Prunelle)', 'TRUE']`
Already sent => Ignoring  line 98 : `['Alberto Russo', 'Alberto', 'RUSSO', 'VD479861', 'Bleu', 'info@alberto-russo.com', 'Francais', '0041 78 665 03 19 (Zoé)', 'TRUE']`
Already sent => Ignoring  line 99 : `['Fantasy Aquarel’', 'Valérie', 'SURCHAT', 'FR215247', 'Bleu', 'valerie@surchat.ch', 'Francais', '0041 78 665 03 19 (Zoé)', 'TRUE']`
Already sent => Ignoring  line 100 : `['Vanee_art', 'Solène', 'GALLET', 'GE - 285 - EN', 'Bleu', 's.galletm@gmail.com', 'Francais', '0041 78 665 03 19 (Zoé)', 'TRUE']`
Already sent => Ignoring  line 101 : `['Ptit Shou Illustration', 'Christophe', 'EHRENSPERGER', 'VD 308 888', 'Bleu', 'hello.ptitshou@gmail.com', 'Francais', '0041 78 665 03 19 (Zoé)', 'TRUE']`
Already sent => Ignoring  line 102 : `['Sora poké crea', 'Marion', 'KNOERR', 'GE 160492', 'Bleu', 'marionknoerr@hotmail.com', 'Francais', '0041 78 665 03 19 (Zoé)', 'TRUE']`
Already sent => Ignoring  line 103 : `['Mélanie Garcia', 'Mélanie', 'GARCIA', 'GA-049-YF', 'Bleu', 'melaniegarcia11@gmail.com', 'Francais', '0041 78 665 03 19 (Zoé)', 'TRUE']`
Already sent => Ignoring  line 104 : `['Izart', 'Isabelle', 'PRENAT', 'VS 394 675', 'Bleu', 'isa.prenat@gmail.com', 'Francais', '0041 78 665 03 19 (Zoé)', 'TRUE']`
Already sent => Ignoring  line 105 : `['Oanaï', 'Thomas', 'SCHYRR', 'VD31437', 'Bleu', 'oana.lacroix@gmail.com', 'Francais', '0041 78 665 03 19 (Zoé)', 'TRUE']`
Okay => 	Accepting line 106 : `['Kitsugamigurumi', 'Hugo', 'NUNES', 'VD 607 452', 'Bleu', 'emilynavid@gmail.com', 'Francais', '0041 78 665 03 19 (Zoé)', 'FALSE']`
Already sent => Ignoring  line 107 : `['Su and the boys', 'Morghane', 'MESTRIAUX', 'GB 062 CW', 'Bleu', 'machinasu.contact@gmail.com', 'Francais', '0041 78 665 03 19 (Zoé)', 'TRUE']`
Already sent => Ignoring  line 108 : `['Studio Setsama', 'Stéphane', 'CHEVROLET', 'JU51828', 'Bleu', 'studiosetsama@gmail.com', 'Francais', '0041 78 665 03 19 (Zoé)', 'TRUE']`
Already sent => Ignoring  line 109 : `['garlegas', 'Danny', 'KUNZ', 'VD 292176', 'Bleu', 'garlegasart@gmail.com', 'Francais', '0041 78 665 03 19 (Zoé)', 'TRUE']`
Okay => 	Accepting line 110 : `['Kabé', 'Kercheval Paul', 'BORDES', 'CY 161 GY', 'Jaune', 'kabkab1983@yahoo.fr', 'Francais', '0041 78 665 03 19 (Zoé)', 'FALSE']`
Okay => 	Accepting line 111 : `['Couleur Geek', 'Hervé', 'BEAUD', 'VD 568 135', 'Vert', 'amillebeaud1974@gmail.com', 'Francais', '0041 79 895 93 03 (Martine)', 'FALSE']`
Okay => 	Accepting line 112 : `['Repliqua', 'Victor', 'GUICHARD', 'EQ 794 SP', 'Vert', 'contact@repliqua.com', 'Francais', '0041 79 895 93 03 (Martine)', 'FALSE']`
Okay => 	Accepting line 113 : `['Repliqua', 'Victor', 'GUICHARD', 'FN 359 VM', 'Vert', '', 'Francais', '0041 79 895 93 03 (Martine)', 'FALSE']`
Okay => 	Accepting line 114 : `['MediaZone', 'Claudia', 'Cardoso', 'NE 147487', 'Vert', 'info@media-zone.tv', 'Francais', '0041 79 895 93 03 (Martine)', 'FALSE']`
Okay => 	Accepting line 115 : `['MediaZone', 'Frederico', 'Cardoso', 'NE 175333', 'Vert', '', 'Francais', '0041 79 895 93 03 (Martine)', 'FALSE']`
Bad format => 	Ignoring  line 116 : `['DUVET-Calligraphies', 'Maryon', 'DELALOYE', '', 'Bleu', 'isabelle.jeudy@hotmail.fr', 'Francais', '0041 79 895 93 03 (Martine)', 'FALSE']`
Okay => 	Accepting line 117 : `['GamingFederation', 'Samuel', 'Vincente', 'FR 212220', 'Violet', 'samuel.vicente@gamingfederation.ch', 'Francais', '0041 78 665 03 19 (Zoé)', 'FALSE']`
Okay => 	Accepting line 118 : `['GamingFederation', 'Niels', 'Weber', 'VD 193177', 'Violet', '', 'Francais', '0041 78 665 03 19 (Zoé)', 'FALSE']`
Okay => 	Accepting line 119 : `['Cercle Suisse-Japon', 'Hannes ', 'Bleuler', 'VD-344 263', 'Vert', 'hannes.bleuler@epfl.ch', 'Francais', '0041 78 665 03 19 (Zoé)', 'FALSE']`
Bad format => 	Ignoring  line 120 : `['Cercle Suisse-Japon', 'Sylvain', 'Meier', '', '', '', '', '', 'FALSE']`
Bad format => 	Ignoring  line 121 : `['Cercle Suisse-Japon', 'Nima', 'Merk', '', '', '', '', '', 'FALSE']`
Bad format => 	Ignoring  line 122 : `['Cercle Suisse-Japon', 'Pierrette', 'Frochaux', '', '', '', '', '', 'FALSE']`
/home/rno/FunProgramming/macaroni/macaroni.py:37: DeprecationWarning: getsize is deprecated and will be removed in Pillow 10 (2023-07-01). Use getbbox or getlength instead.
  width, u = font.getsize(text)
Mail sent to joelle@fluffytori.pink
Mail sent to pokedisneystitch@gmail.com
Mail sent to bubbletea@chuchu.ch
Mail sent to weronika.wins@label7.ch
Mail sent to eventceline@gmail.com
Mail sent to stephane.liechti@ukiyo.swiss
Mail sent to serenitechloe@gmail.com
Mail sent to contact@kissui.moe
Mail sent to andrea.luck@gmvd.migros.ch
Mail sent to pa.grasseler@genkicorp.ch
Mail sent to kayshonne@gmail.com
Mail sent to silver.scale.creations@gmail.com
Mail sent to LBG-LesBouillesGeek@outlook.com
Mail sent to emilynavid@gmail.com
Mail sent to kabkab1983@yahoo.fr
Mail sent to amillebeaud1974@gmail.com
Mail sent to contact@repliqua.com
Mail sent to info@media-zone.tv
Mail sent to samuel.vicente@gamingfederation.ch
Mail sent to hannes.bleuler@epfl.ch
All done! Check the results/ folder.
